{
  "borgbase_repo": "generate:2022-06-04",
  "db_admin_password": "generate:2022-06-04",
  "db_main_password": "generate:2022-06-04",
  "db_read_password": "generate:2022-06-04",
  "secret": "generate:2022-06-04",
  "salt": "generate:2022-06-04",
  "seed": "generate:2022-06-04",
  "test": "generate:2022-06-04",
  "etwin_client_secret": "generate:2022-06-04",
  "discord_token": "aead:$katal$v=1$$g+ki/gd+LlzlIlu+$pSlg6J2LhboshcMtq0Hc/GrPRUN5gqZKA+1TExTYC8vPx4zyqLZNN7PI69ZlYlGYD4s7QprMrlqlc7Y01AnlHzEp0jqBpm8AIecbu1b/JXdP8D/E8g3RJg=="
}
